oszi/T0000.CSV

Model,DPO2022B
Firmware Version,1.56

Point Format,Y,
Horizontal Units,S,
Horizontal Scale,4e-05,
Sample Interval,4e-09,
Filter Frequency,2e+08,
Record Length,100000,
Gating,0.0% to 100.0%,
Probe Attenuation,10,
Vertical Units,V,
Vertical Offset,0,
Vertical Scale,0.05,
Label,,
TIME,CH1,CH1 Peak Detect
-1.06000e-04,-0.163,-0.167
-1.05996e-04,-0.155,-0.155
-1.05992e-04,-0.157,-0.157
-1.05988e-04,-0.153,-0.149
-1.05984e-04,-0.157,-0.161
-1.05980e-04,-0.151,-0.149
-1.05976e-04,-0.161,-0.161
-1.05972e-04,-0.161,-0.149
-1.05968e-04,-0.163,-0.165
-1.05964e-04,-0.151,-0.149
-1.05960e-04,-0.151,-0.165
-1.05956e-04,-0.165,-0.151
-1.05952e-04,-0.157,-0.163
-1.05948e-04,-0.163,-0.157
-1.05944e-04,-0.157,-0.165
-1.05940e-04,-0.157,-0.157
-1.05936e-04,-0.153,-0.163
-1.05932e-04,-0.163,-0.153
-1.05928e-04,-0.155,-0.163
-1.05924e-04,-0.163,-0.155
-1.05920e-04,-0.159,-0.167
-1.05916e-04,-0.157,-0.157
-1.05912e-04,-0.157,-0.165
-1.05908e-04,-0.165,-0.153
-1.05904e-04,-0.163,-0.167
-1.05900e-04,-0.159,-0.159
-1.05896e-04,-0.161,-0.171
-1.05892e-04,-0.165,-0.157
-1.05888e-04,-0.151,-0.167
-1.05884e-04,-0.151,-0.151
-1.05880e-04,-0.157,-0.157
-1.05876e-04,-0.153,-0.153
-1.05872e-04,-0.147,-0.161
-1.05868e-04,-0.161,-0.145
-1.05864e-04,-0.149,-0.159
-1.05860e-04,-0.159,-0.149
-1.05856e-04,-0.151,-0.157
-1.05852e-04,-0.147,-0.147
-1.05848e-04,-0.163,-0.163
-1.05844e-04,-0.147,-0.147
-1.05840e-04,-0.145,-0.161
-1.05836e-04,-0.161,-0.145
-1.05832e-04,-0.157,-0.165
-1.05828e-04,-0.165,-0.155
-1.05824e-04,-0.165,-0.165
-1.05820e-04,-0.155,-0.153
-1.05816e-04,-0.159,-0.167
-1.05812e-04,-0.161,-0.153
-1.05808e-04,-0.155,-0.159
-1.05804e-04,-0.153,-0.149
-1.05800e-04,-0.149,-0.159
-1.05796e-04,-0.159,-0.149
-1.05792e-04,-0.147,-0.161
-1.05788e-04,-0.161,-0.147
-1.05784e-04,-0.161,-0.161
-1.05780e-04,-0.153,-0.151
-1.05776e-04,-0.161,-0.163
-1.05772e-04,-0.149,-0.149
-1.05768e-04,-0.159,-0.161
-1.05764e-04,-0.153,-0.149
-1.05760e-04,-0.155,-0.165
-1.05756e-04,-0.165,-0.155
-1.05752e-04,-0.159,-0.163
-1.05748e-04,-0.161,-0.149
-1.05744e-04,-0.155,-0.163
-1.05740e-04,-0.151,-0.143
-1.05736e-04,-0.155,-0.161
-1.05732e-04,-0.159,-0.147
-1.05728e-04,-0.149,-0.159
-1.05724e-04,-0.149,-0.147
-1.05720e-04,-0.161,-0.161
-1.05716e-04,-0.155,-0.143
-1.05712e-04,-0.143,-0.153
-1.05708e-04,-0.145,-0.139
-1.05704e-04,-0.149,-0.149
-1.05700e-04,-0.149,-0.139
-1.05696e-04,-0.149,-0.157
-1.05692e-04,-0.155,-0.143
-1.05688e-04,-0.159,-0.159
-1.05684e-04,-0.147,-0.147
-1.05680e-04,-0.151,-0.163
-1.05676e-04,-0.163,-0.147
-1.05672e-04,-0.147,-0.155
-1.05668e-04,-0.147,-0.139
-1.05664e-04,-0.151,-0.153
-1.05660e-04,-0.145,-0.143
-1.05656e-04,-0.151,-0.153
-1.05652e-04,-0.145,-0.145
-1.05648e-04,-0.147,-0.153
-1.05644e-04,-0.153,-0.139
-1.05640e-04,-0.151,-0.157
-1.05636e-04,-0.151,-0.143
-1.05632e-04,-0.153,-0.153
-1.05628e-04,-0.147,-0.147
-1.05624e-04,-0.149,-0.163
-1.05620e-04,-0.163,-0.145
-1.05616e-04,-0.157,-0.159
-1.05612e-04,-0.159,-0.149
-1.05608e-04,-0.163,-0.163
-1.05604e-04,-0.147,-0.147
-1.05600e-04,-0.153,-0.161
-1.05596e-04,-0.157,-0.149
-1.05592e-04,-0.155,-0.157
-1.05588e-04,-0.155,-0.151
-1.05584e-04,-0.151,-0.163
-1.05580e-04,-0.163,-0.143
-1.05576e-04,-0.155,-0.165
-1.05572e-04,-0.153,-0.153
-1.05568e-04,-0.155,-0.161
-1.05564e-04,-0.147,-0.147
-1.05560e-04,-0.155,-0.161
-1.05556e-04,-0.159,-0.151
-1.05552e-04,-0.151,-0.159
-1.05548e-04,-0.159,-0.145
-1.05544e-04,-0.153,-0.157
-1.05540e-04,-0.147,-0.147
-1.05536e-04,-0.143,-0.157
-1.05532e-04,-0.149,-0.143
-1.05528e-04,-0.153,-0.153
-1.05524e-04,-0.145,-0.145
-1.05520e-04,-0.151,-0.157
-1.05516e-04,-0.155,-0.143
-1.05512e-04,-0.149,-0.155
-1.05508e-04,-0.151,-0.147
-1.05504e-04,-0.161,-0.161
-1.05500e-04,-0.149,-0.149
-1.05496e-04,-0.155,-0.165
-1.05492e-04,-0.165,-0.153
-1.05488e-04,-0.151,-0.155
-1.05484e-04,-0.147,-0.145
-1.05480e-04,-0.163,-0.165
-1.05476e-04,-0.153,-0.151
-1.05472e-04,-0.157,-0.165
-1.05468e-04,-0.157,-0.157
-1.05464e-04,-0.151,-0.165
-1.05460e-04,-0.163,-0.147
-1.05456e-04,-0.151,-0.159
-1.05452e-04,-0.157,-0.151
-1.05448e-04,-0.161,-0.161
-1.05444e-04,-0.151,-0.151
-1.05440e-04,-0.153,-0.165
-1.05436e-04,-0.165,-0.147
-1.05432e-04,-0.155,-0.161
-1.05428e-04,-0.155,-0.153
-1.05424e-04,-0.155,-0.155
-1.05420e-04,-0.153,-0.149
-1.05416e-04,-0.153,-0.165
-1.05412e-04,-0.161,-0.151
-1.05408e-04,-0.165,-0.167
-1.05404e-04,-0.155,-0.147
-1.05400e-04,-0.155,-0.167
-1.05396e-04,-0.145,-0.145
-1.05392e-04,-0.151,-0.161
-1.05388e-04,-0.161,-0.143
-1.05384e-04,-0.147,-0.159
-1.05380e-04,-0.159,-0.147
-1.05376e-04,-0.153,-0.167
-1.05372e-04,-0.167,-0.151
-1.05368e-04,-0.149,-0.157
-1.05364e-04,-0.147,-0.145
-1.05360e-04,-0.153,-0.157
-1.05356e-04,-0.157,-0.149
-1.05352e-04,-0.155,-0.161
-1.05348e-04,-0.161,-0.141
-1.05344e-04,-0.151,-0.159
-1.05340e-04,-0.151,-0.151
-1.05336e-04,-0.151,-0.163
-1.05332e-04,-0.163,-0.151
-1.05328e-04,-0.165,-0.165
-1.05324e-04,-0.153,-0.153
-1.05320e-04,-0.157,-0.165
-1.05316e-04,-0.157,-0.149
-1.05312e-04,-0.161,-0.165
-1.05308e-04,-0.159,-0.159
-1.05304e-04,-0.157,-0.159
-1.05300e-04,-0.155,-0.145
-1.05296e-04,-0.151,-0.165
-1.05292e-04,-0.165,-0.149
-1.05288e-04,-0.165,-0.165
-1.05284e-04,-0.155,-0.155
-1.05280e-04,-0.165,-0.169
-1.05276e-04,-0.155,-0.155
-1.05272e-04,-0.153,-0.171
-1.05268e-04,-0.171,-0.153
-1.05264e-04,-0.153,-0.165
-1.05260e-04,-0.157,-0.151
-1.05256e-04,-0.157,-0.161
-1.05252e-04,-0.153,-0.149
-1.05248e-04,-0.159,-0.163
-1.05244e-04,-0.149,-0.145
-1.05240e-04,-0.151,-0.163
-1.05236e-04,-0.163,-0.147
-1.05232e-04,-0.153,-0.165
-1.05228e-04,-0.153,-0.153
-1.05224e-04,-0.153,-0.163
-1.05220e-04,-0.155,-0.151
-1.05216e-04,-0.153,-0.163
-1.05212e-04,-0.163,-0.153
-1.05208e-04,-0.153,-0.163
-1.05204e-04,-0.155,-0.153
-1.05200e-04,-0.163,-0.163
-1.05196e-04,-0.153,-0.149
-1.05192e-04,-0.165,-0.167
-1.05188e-04,-0.161,-0.153
-1.05184e-04,-0.155,-0.161
-1.05180e-04,-0.147,-0.147
-1.05176e-04,-0.147,-0.157
-1.05172e-04,-0.157,-0.145
-1.05168e-04,-0.151,-0.159
-1.05164e-04,-0.155,-0.145
-1.05160e-04,-0.157,-0.159
-1.05156e-04,-0.145,-0.145
-1.05152e-04,-0.155,-0.169
-1.05148e-04,-0.169,-0.151
-1.05144e-04,-0.151,-0.165
-1.05140e-04,-0.153,-0.151
-1.05136e-04,-0.157,-0.171
-1.05132e-04,-0.169,-0.157
-1.05128e-04,-0.155,-0.159
-1.05124e-04,-0.149,-0.149
-1.05120e-04,-0.155,-0.169
-1.05116e-04,-0.161,-0.151
-1.05112e-04,-0.151,-0.175
-1.05108e-04,-0.175,-0.151
-1.05104e-04,-0.155,-0.165
-1.05100e-04,-0.157,-0.151
-1.05096e-04,-0.153,-0.157
-1.05092e-04,-0.149,-0.141
-1.05088e-04,-0.149,-0.153
-1.05084e-04,-0.147,-0.147
-1.05080e-04,-0.157,-0.161
-1.05076e-04,-0.149,-0.149
-1.05072e-04,-0.151,-0.155
-1.05068e-04,-0.155,-0.147
-1.05064e-04,-0.161,-0.167
-1.05060e-04,-0.161,-0.155
-1.05056e-04,-0.151,-0.157
-1.05052e-04,-0.157,-0.143
-1.05048e-04,-0.147,-0.157
-1.05044e-04,-0.157,-0.145
-1.05040e-04,-0.149,-0.163
-1.05036e-04,-0.153,-0.145
-1.05032e-04,-0.163,-0.163
-1.05028e-04,-0.153,-0.149
-1.05024e-04,-0.151,-0.163
-1.05020e-04,-0.153,-0.149
-1.05016e-04,-0.147,-0.159
-1.05012e-04,-0.151,-0.143
-1.05008e-04,-0.159,-0.161
-1.05004e-04,-0.159,-0.151
-1.05000e-04,-0.149,-0.163
-1.04996e-04,-0.157,-0.149
-1.04992e-04,-0.159,-0.159
-1.04988e-04,-0.139,-0.139
-1.04984e-04,-0.149,-0.161
-1.04980e-04,-0.153,-0.139
-1.04976e-04,-0.157,-0.157
-1.04972e-04,-0.151,-0.151
-1.04968e-04,-0.163,-0.165
-1.04964e-04,-0.159,-0.151
-1.04960e-04,-0.149,-0.169
-1.04956e-04,-0.165,-0.149
-1.04952e-04,-0.151,-0.167
-1.04948e-04,-0.167,-0.147
-1.04944e-04,-0.159,-0.165
-1.04940e-04,-0.147,-0.147
-1.04936e-04,-0.153,-0.163
-1.04932e-04,-0.159,-0.147
-1.04928e-04,-0.161,-0.163
-1.04924e-04,-0.163,-0.157
-1.04920e-04,-0.151,-0.171
-1.04916e-04,-0.163,-0.147
-1.04912e-04,-0.169,-0.169
-1.04908e-04,-0.157,-0.151
-1.04904e-04,-0.159,-0.165
-1.04900e-04,-0.147,-0.147
-1.04896e-04,-0.151,-0.161
-1.04892e-04,-0.161,-0.149
-1.04888e-04,-0.157,-0.165
-1.04884e-04,-0.165,-0.155
-1.04880e-04,-0.157,-0.163
-1.04876e-04,-0.151,-0.151
-1.04872e-04,-0.157,-0.161
-1.04868e-04,-0.157,-0.153
-1.04864e-04,-0.155,-0.169
-1.04860e-04,-0.161,-0.155
-1.04856e-04,-0.161,-0.165
-1.04852e-04,-0.163,-0.153
-1.04848e-04,-0.163,-0.165
-1.04844e-04,-0.159,-0.159
-1.04840e-04,-0.161,-0.161
-1.04836e-04,-0.149,-0.147
-1.04832e-04,-0.151,-0.169
-1.04828e-04,-0.169,-0.147
-1.04824e-04,-0.151,-0.167
-1.04820e-04,-0.151,-0.147
-1.04816e-04,-0.157,-0.163
-1.04812e-04,-0.163,-0.141
-1.04808e-04,-0.153,-0.165
-1.04804e-04,-0.165,-0.153
-1.04800e-04,-0.157,-0.163
-1.04796e-04,-0.151,-0.151
-1.04792e-04,-0.155,-0.155
-1.04788e-04,-0.155,-0.143
-1.04784e-04,-0.159,-0.161
-1.04780e-04,-0.157,-0.157
-1.04776e-04,-0.149,-0.151
-1.04772e-04,-0.151,-0.135
-1.04768e-04,-0.149,-0.155
-1.04764e-04,-0.155,-0.143
-1.04760e-04,-0.153,-0.153
-1.04756e-04,-0.149,-0.145
-1.04752e-04,-0.169,-0.169
-1.04748e-04,-0.161,-0.149
-1.04744e-04,-0.145,-0.167
-1.04740e-04,-0.167,-0.145
-1.04736e-04,-0.155,-0.157
-1.04732e-04,-0.155,-0.145
-1.04728e-04,-0.153,-0.153
-1.04724e-04,-0.151,-0.147
-1.04720e-04,-0.151,-0.159
-1.04716e-04,-0.159,-0.149
-1.04712e-04,-0.153,-0.155
-1.04708e-04,-0.153,-0.145
-1.04704e-04,-0.151,-0.157
-1.04700e-04,-0.157,-0.151
-1.04696e-04,-0.153,-0.161
-1.04692e-04,-0.149,-0.149
-1.04688e-04,-0.159,-0.163
-1.04684e-04,-0.153,-0.151
-1.04680e-04,-0.167,-0.167
-1.04676e-04,-0.151,-0.151
-1.04672e-04,-0.157,-0.163
-1.04668e-04,-0.163,-0.155
-1.04664e-04,-0.149,-0.163
-1.04660e-04,-0.153,-0.149
-1.04656e-04,-0.155,-0.161
-1.04652e-04,-0.161,-0.151
-1.04648e-04,-0.147,-0.163
-1.04644e-04,-0.153,-0.147
-1.04640e-04,-0.153,-0.153
-1.04636e-04,-0.147,-0.147
-1.04632e-04,-0.159,-0.161
-1.04628e-04,-0.155,-0.153
-1.04624e-04,-0.153,-0.153
-1.04620e-04,-0.153,-0.147
-1.04616e-04,-0.151,-0.155
-1.04612e-04,-0.153,-0.149
-1.04608e-04,-0.157,-0.165
-1.04604e-04,-0.155,-0.151
-1.04600e-04,-0.151,-0.159
-1.04596e-04,-0.147,-0.145
-1.04592e-04,-0.163,-0.163
-1.04588e-04,-0.157,-0.147
-1.04584e-04,-0.157,-0.167
-1.04580e-04,-0.159,-0.149
-1.04576e-04,-0.161,-0.169
-1.04572e-04,-0.157,-0.157
-1.04568e-04,-0.157,-0.157
-1.04564e-04,-0.157,-0.151
-1.04560e-04,-0.157,-0.159
-1.04556e-04,-0.147,-0.147
-1.04552e-04,-0.155,-0.159
-1.04548e-04,-0.153,-0.143
-1.04544e-04,-0.153,-0.155
-1.04540e-04,-0.149,-0.145
-1.04536e-04,-0.149,-0.161
-1.04532e-04,-0.161,-0.145
-1.04528e-04,-0.147,-0.159
-1.04524e-04,-0.147,-0.147
-1.04520e-04,-0.149,-0.157
-1.04516e-04,-0.157,-0.147
-1.04512e-04,-0.147,-0.157
-1.04508e-04,-0.155,-0.145
-1.04504e-04,-0.147,-0.153
-1.04500e-04,-0.151,-0.143
-1.04496e-04,-0.163,-0.163
-1.04492e-04,-0.157,-0.147
-1.04488e-04,-0.155,-0.163
-1.04484e-04,-0.159,-0.155
-1.04480e-04,-0.153,-0.163
-1.04476e-04,-0.159,-0.147
-1.04472e-04,-0.157,-0.159
-1.04468e-04,-0.141,-0.141
-1.04464e-04,-0.161,-0.163
-1.04460e-04,-0.149,-0.145
-1.04456e-04,-0.147,-0.165
-1.04452e-04,-0.165,-0.145
-1.04448e-04,-0.155,-0.159
-1.04444e-04,-0.149,-0.149
-1.04440e-04,-0.153,-0.155
-1.04436e-04,-0.153,-0.151
-1.04432e-04,-0.151,-0.157
-1.04428e-04,-0.153,-0.151
-1.04424e-04,-0.149,-0.157
-1.04420e-04,-0.153,-0.147
-1.04416e-04,-0.151,-0.159
-1.04412e-04,-0.159,-0.147
-1.04408e-04,-0.151,-0.155
-1.04404e-04,-0.149,-0.143
-1.04400e-04,-0.151,-0.167
-1.04396e-04,-0.159,-0.151
-1.04392e-04,-0.155,-0.159
-1.04388e-04,-0.159,-0.141
-1.04384e-04,-0.143,-0.157
-1.04380e-04,-0.155,-0.143
-1.04376e-04,-0.145,-0.157
-1.04372e-04,-0.155,-0.143
-1.04368e-04,-0.157,-0.157
-1.04364e-04,-0.147,-0.147
-1.04360e-04,-0.139,-0.159
-1.04356e-04,-0.147,-0.139
-1.04352e-04,-0.157,-0.157
-1.04348e-04,-0.157,-0.147
-1.04344e-04,-0.157,-0.157
-1.04340e-04,-0.151,-0.149
-1.04336e-04,-0.155,-0.165
-1.04332e-04,-0.157,-0.147
-1.04328e-04,-0.159,-0.159
-1.04324e-04,-0.157,-0.153
-1.04320e-04,-0.159,-0.161
-1.04316e-04,-0.159,-0.155
-1.04312e-04,-0.167,-0.167
-1.04308e-04,-0.157,-0.151
-1.04304e-04,-0.171,-0.173
-1.04300e-04,-0.155,-0.155
-1.04296e-04,-0.151,-0.155
-1.04292e-04,-0.155,-0.149
-1.04288e-04,-0.155,-0.159
-1.04284e-04,-0.151,-0.147
-1.04280e-04,-0.157,-0.163
-1.04276e-04,-0.153,-0.153
-1.04272e-04,-0.145,-0.155
-1.04268e-04,-0.155,-0.145
-1.04264e-04,-0.151,-0.159
-1.04260e-04,-0.149,-0.149
-1.04256e-04,-0.153,-0.153
-1.04252e-04,-0.151,-0.147
-1.04248e-04,-0.151,-0.157
-1.04244e-04,-0.155,-0.151
-1.04240e-04,-0.157,-0.157
-1.04236e-04,-0.149,-0.143
-1.04232e-04,-0.143,-0.157
-1.04228e-04,-0.157,-0.143
-1.04224e-04,-0.155,-0.161
-1.04220e-04,-0.159,-0.151
-1.04216e-04,-0.155,-0.159
-1.04212e-04,-0.153,-0.153
-1.04208e-04,-0.163,-0.163
-1.04204e-04,-0.149,-0.147
-1.04200e-04,-0.151,-0.157
-1.04196e-04,-0.157,-0.141
-1.04192e-04,-0.147,-0.153
-1.04188e-04,-0.147,-0.143
-1.04184e-04,-0.151,-0.157
-1.04180e-04,-0.145,-0.145
-1.04176e-04,-0.159,-0.159
-1.04172e-04,-0.147,-0.141
-1.04168e-04,-0.147,-0.157
-1.04164e-04,-0.153,-0.147
-1.04160e-04,-0.147,-0.157
-1.04156e-04,-0.155,-0.145
-1.04152e-04,-0.163,-0.165
-1.04148e-04,-0.157,-0.153
-1.04144e-04,-0.157,-0.161
-1.04140e-04,-0.155,-0.149
-1.04136e-04,-0.151,-0.161
-1.04132e-04,-0.161,-0.149
-1.04128e-04,-0.157,-0.165
-1.04124e-04,-0.163,-0.143
-1.04120e-04,-0.151,-0.169
-1.04116e-04,-0.157,-0.149
-1.04112e-04,-0.159,-0.165
-1.04108e-04,-0.159,-0.149
-1.04104e-04,-0.155,-0.159
-1.04100e-04,-0.147,-0.143
-1.04096e-04,-0.157,-0.163
-1.04092e-04,-0.149,-0.147
-1.04088e-04,-0.151,-0.153
-1.04084e-04,-0.153,-0.147
-1.04080e-04,-0.149,-0.153
-1.04076e-04,-0.153,-0.147
-1.04072e-04,-0.155,-0.163
-1.04068e-04,-0.159,-0.147
-1.04064e-04,-0.155,-0.165
-1.04060e-04,-0.151,-0.151
-1.04056e-04,-0.163,-0.163
-1.04052e-04,-0.149,-0.147
-1.04048e-04,-0.151,-0.161
-1.04044e-04,-0.161,-0.149
-1.04040e-04,-0.157,-0.157
-1.04036e-04,-0.153,-0.147
-1.04032e-04,-0.161,-0.161
-1.04028e-04,-0.141,-0.141
-1.04024e-04,-0.157,-0.165
-1.04020e-04,-0.155,-0.147
-1.04016e-04,-0.157,-0.161
-1.04012e-04,-0.161,-0.151
-1.04008e-04,-0.151,-0.159
-1.04004e-04,-0.151,-0.151
-1.04000e-04,-0.143,-0.157
-1.03996e-04,-0.149,-0.141
-1.03992e-04,-0.167,-0.167
-1.03988e-04,-0.155,-0.145
-1.03984e-04,-0.147,-0.161
-1.03980e-04,-0.155,-0.147
-1.03976e-04,-0.149,-0.157
-1.03972e-04,-0.151,-0.147
-1.03968e-04,-0.155,-0.157
-1.03964e-04,-0.145,-0.145
-1.03960e-04,-0.153,-0.161
-1.03956e-04,-0.157,-0.143
-1.03952e-04,-0.157,-0.165
-1.03948e-04,-0.161,-0.155
-1.03944e-04,-0.151,-0.161
-1.03940e-04,-0.149,-0.147
-1.03936e-04,-0.143,-0.155
-1.03932e-04,-0.155,-0.143
-1.03928e-04,-0.157,-0.159
-1.03924e-04,-0.147,-0.145
-1.03920e-04,-0.141,-0.151
-1.03916e-04,-0.151,-0.141
-1.03912e-04,-0.149,-0.159
-1.03908e-04,-0.159,-0.149
-1.03904e-04,-0.157,-0.159
-1.03900e-04,-0.147,-0.141
-1.03896e-04,-0.141,-0.157
-1.03892e-04,-0.157,-0.141
-1.03888e-04,-0.163,-0.163
-1.03884e-04,-0.145,-0.143
-1.03880e-04,-0.161,-0.161
-1.03876e-04,-0.145,-0.145
-1.03872e-04,-0.157,-0.157
-1.03868e-04,-0.155,-0.145
-1.03864e-04,-0.151,-0.161
-1.03860e-04,-0.147,-0.143
-1.03856e-04,-0.149,-0.163
-1.03852e-04,-0.163,-0.147
-1.03848e-04,-0.153,-0.159
-1.03844e-04,-0.153,-0.147
-1.03840e-04,-0.147,-0.155
-1.03836e-04,-0.155,-0.145
-1.03832e-04,-0.155,-0.157
-1.03828e-04,-0.157,-0.147
-1.03824e-04,-0.155,-0.159
-1.03820e-04,-0.155,-0.151
-1.03816e-04,-0.157,-0.159
-1.03812e-04,-0.147,-0.145
-1.03808e-04,-0.151,-0.161
-1.03804e-04,-0.159,-0.151
-1.03800e-04,-0.161,-0.167
-1.03796e-04,-0.163,-0.161
-1.03792e-04,-0.159,-0.159
-1.03788e-04,-0.155,-0.153
-1.03784e-04,-0.159,-0.161
-1.03780e-04,-0.153,-0.149
-1.03776e-04,-0.161,-0.161
-1.03772e-04,-0.153,-0.149
-1.03768e-04,-0.153,-0.159
-1.03764e-04,-0.159,-0.147
-1.03760e-04,-0.155,-0.163
-1.03756e-04,-0.157,-0.153
-1.03752e-04,-0.159,-0.163
-1.03748e-04,-0.155,-0.147
-1.03744e-04,-0.155,-0.165
-1.03740e-04,-0.157,-0.155
-1.03736e-04,-0.159,-0.165
-1.03732e-04,-0.161,-0.143
-1.03728e-04,-0.159,-0.163
-1.03724e-04,-0.157,-0.157
-1.03720e-04,-0.155,-0.161
-1.03716e-04,-0.157,-0.151
-1.03712e-04,-0.155,-0.155
-1.03708e-04,-0.153,-0.151
-1.03704e-04,-0.147,-0.161
-1.03700e-04,-0.155,-0.147
-1.03696e-04,-0.159,-0.159
-1.03692e-04,-0.151,-0.151
-1.03688e-04,-0.157,-0.159
-1.03684e-04,-0.147,-0.147
-1.03680e-04,-0.141,-0.165
-1.03676e-04,-0.161,-0.141
-1.03672e-04,-0.153,-0.159
-1.03668e-04,-0.159,-0.149
-1.03664e-04,-0.157,-0.159
-1.03660e-04,-0.147,-0.147
-1.03656e-04,-0.163,-0.165
-1.03652e-04,-0.157,-0.147
-1.03648e-04,-0.149,-0.161
-1.03644e-04,-0.159,-0.143
-1.03640e-04,-0.153,-0.159
-1.03636e-04,-0.155,-0.151
-1.03632e-04,-0.147,-0.151
-1.03628e-04,-0.149,-0.141
-1.03624e-04,-0.143,-0.157
-1.03620e-04,-0.139,-0.139
-1.03616e-04,-0.155,-0.159
-1.03612e-04,-0.157,-0.139
-1.03608e-04,-0.151,-0.163
-1.03604e-04,-0.163,-0.147
-1.03600e-04,-0.159,-0.169
-1.03596e-04,-0.169,-0.157
-1.03592e-04,-0.163,-0.171
-1.03588e-04,-0.165,-0.159
-1.03584e-04,-0.153,-0.165
-1.03580e-04,-0.153,-0.153
-1.03576e-04,-0.147,-0.153
-1.03572e-04,-0.147,-0.147
-1.03568e-04,-0.153,-0.155
-1.03564e-04,-0.149,-0.147
-1.03560e-04,-0.155,-0.159
-1.03556e-04,-0.159,-0.151
-1.03552e-04,-0.155,-0.159
-1.03548e-04,-0.155,-0.143
-1.03544e-04,-0.157,-0.163
-1.03540e-04,-0.163,-0.155
-1.03536e-04,-0.161,-0.165
-1.03532e-04,-0.145,-0.145
-1.03528e-04,-0.153,-0.159
-1.03524e-04,-0.153,-0.151
-1.03520e-04,-0.149,-0.161
-1.03516e-04,-0.157,-0.141
-1.03512e-04,-0.163,-0.165
-1.03508e-04,-0.163,-0.149
-1.03504e-04,-0.151,-0.161
-1.03500e-04,-0.157,-0.151
-1.03496e-04,-0.167,-0.167
-1.03492e-04,-0.157,-0.157
-1.03488e-04,-0.163,-0.167
-1.03484e-04,-0.163,-0.155
-1.03480e-04,-0.155,-0.167
-1.03476e-04,-0.159,-0.149
-1.03472e-04,-0.163,-0.163
-1.03468e-04,-0.149,-0.149
-1.03464e-04,-0.153,-0.165
-1.03460e-04,-0.157,-0.153
-1.03456e-04,-0.155,-0.157
-1.03452e-04,-0.157,-0.151
-1.03448e-04,-0.161,-0.165
-1.03444e-04,-0.157,-0.157
-1.03440e-04,-0.149,-0.155
-1.03436e-04,-0.153,-0.149
-1.03432e-04,-0.155,-0.159
-1.03428e-04,-0.153,-0.149
-1.03424e-04,-0.151,-0.165
-1.03420e-04,-0.151,-0.147
-1.03416e-04,-0.161,-0.163
-1.03412e-04,-0.151,-0.149
-1.03408e-04,-0.151,-0.161
-1.03404e-04,-0.159,-0.141
-1.03400e-04,-0.163,-0.163
-1.03396e-04,-0.149,-0.149
-1.03392e-04,-0.155,-0.165
-1.03388e-04,-0.165,-0.149
-1.03384e-04,-0.151,-0.153
-1.03380e-04,-0.145,-0.145
-1.03376e-04,-0.147,-0.157
-1.03372e-04,-0.145,-0.145
-1.03368e-04,-0.151,-0.151
-1.03364e-04,-0.137,-0.137
-1.03360e-04,-0.157,-0.159
-1.03356e-04,-0.149,-0.143
-1.03352e-04,-0.149,-0.153
-1.03348e-04,-0.147,-0.141
-1.03344e-04,-0.155,-0.159
-1.03340e-04,-0.153,-0.141
-1.03336e-04,-0.153,-0.155
-1.03332e-04,-0.153,-0.151
-1.03328e-04,-0.163,-0.169
-1.03324e-04,-0.163,-0.155
-1.03320e-04,-0.149,-0.161
-1.03316e-04,-0.159,-0.149
-1.03312e-04,-0.151,-0.157
-1.03308e-04,-0.157,-0.147
-1.03304e-04,-0.149,-0.163
-1.03300e-04,-0.147,-0.147
-1.03296e-04,-0.139,-0.149
-1.03292e-04,-0.149,-0.139
-1.03288e-04,-0.155,-0.155
-1.03284e-04,-0.153,-0.143
-1.03280e-04,-0.151,-0.163
-1.03276e-04,-0.143,-0.143
-1.03272e-04,-0.161,-0.161
-1.03268e-04,-0.151,-0.149
-1.03264e-04,-0.161,-0.163
-1.03260e-04,-0.159,-0.145
-1.03256e-04,-0.147,-0.163
-1.03252e-04,-0.157,-0.147
-1.03248e-04,-0.159,-0.161
-1.03244e-04,-0.155,-0.151
-1.03240e-04,-0.157,-0.157
-1.03236e-04,-0.151,-0.151
-1.03232e-04,-0.157,-0.159
-1.03228e-04,-0.153,-0.149
-1.03224e-04,-0.163,-0.163
-1.03220e-04,-0.161,-0.153
-1.03216e-04,-0.163,-0.165
-1.03212e-04,-0.161,-0.159
-1.03208e-04,-0.159,-0.161
-1.03204e-04,-0.155,-0.155
-1.03200e-04,-0.157,-0.161
-1.03196e-04,-0.157,-0.151
-1.03192e-04,-0.151,-0.157
-1.03188e-04,-0.157,-0.143
-1.03184e-04,-0.155,-0.155
-1.03180e-04,-0.147,-0.147
-1.03176e-04,-0.149,-0.159
-1.03172e-04,-0.147,-0.147
-1.03168e-04,-0.155,-0.159
-1.03164e-04,-0.155,-0.145
-1.03160e-04,-0.161,-0.161
-1.03156e-04,-0.153,-0.153
-1.03152e-04,-0.151,-0.159
-1.03148e-04,-0.159,-0.149
-1.03144e-04,-0.151,-0.159
-1.03140e-04,-0.155,-0.145
-1.03136e-04,-0.141,-0.157
-1.03132e-04,-0.157,-0.137
-1.03128e-04,-0.151,-0.155
-1.03124e-04,-0.149,-0.147
-1.03120e-04,-0.159,-0.159
-1.03116e-04,-0.153,-0.151
-1.03112e-04,-0.143,-0.159
-1.03108e-04,-0.157,-0.143
-1.03104e-04,-0.141,-0.163
-1.03100e-04,-0.163,-0.141
-1.03096e-04,-0.157,-0.161
-1.03092e-04,-0.149,-0.149
-1.03088e-04,-0.163,-0.163
